{
  "statusCode": 200,
  "message": "查询成功",
  "data": {
    "content": [
      {
        "delFlag": false,
        "createTime": "2019-12-13 18:06:44",
        "lastModifyTime": "2019-12-20 11:50:11",
        "createUID": null,
        "lastModifyUID": null,
        "createName": null,
        "id": 1,
        "userName": "super",
        "password": "$2a$10$MyyFxxKqH2kSX1R9jSf3m.gVDYIjnzEKz.I/PWF7GDXEK.lnCMn5G",
        "fullName": "超级管理员",
        "department": null,
        "role": "",
        "telephone": "",
        "auth": 0,
        "enabled": true
      },
      {
        "delFlag": false,
        "createTime": "2019-12-18 16:11:10",
        "lastModifyTime": "2019-12-19 14:55:25",
        "createUID": null,
        "lastModifyUID": null,
        "createName": null,
        "id": 2,
        "userName": "test001",
        "password": "$2a$10$40KzP7AhgLlsMm/9/kqmceCkQUYSZy5cMg7cpS2yjW.e3ZUgH36qC",
        "fullName": "张三",
        "department": "",
        "role": "",
        "telephone": "",
        "auth": 2,
        "enabled": true
      },
      {
        "delFlag": false,
        "createTime": "2019-12-18 16:59:20",
        "lastModifyTime": "2019-12-20 11:50:16",
        "createUID": null,
        "lastModifyUID": null,
        "createName": null,
        "id": 3,
        "userName": "test002",
        "password": "$2a$10$DVb2hiCzzAzzYf0YXARFjeW/xlIWJNkbPeyutQGORZlw5meLK0k6.",
        "fullName": "李四",
        "department": "旅九",
        "role": "普通用户",
        "telephone": "123456789",
        "auth": 2,
        "enabled": false
      },
      {
        "delFlag": false,
        "createTime": "2019-12-18 17:26:12",
        "lastModifyTime": "2019-12-19 12:35:50",
        "createUID": null,
        "lastModifyUID": null,
        "createName": null,
        "id": 4,
        "userName": "test003",
        "password": "$2a$10$7Dk5Tyd38bWeo3VmV0smWeTIfBqu5IrS22CBMtvhtMnZ8UAxI02Ue",
        "fullName": "王五",
        "department": "旅二",
        "role": "普通用户",
        "telephone": "1111",
        "auth": 2,
        "enabled": false
      },
      {
        "delFlag": false,
        "createTime": "2019-12-18 17:45:11",
        "lastModifyTime": "2019-12-19 09:40:17",
        "createUID": null,
        "lastModifyUID": null,
        "createName": null,
        "id": 5,
        "userName": "test004",
        "password": "$2a$10$k/w58GdOkD6bocYHuBF9Bue3j8fkW8bFhGqPeChYuYeY1a4Ebas5u",
        "fullName": "赵六",
        "department": "",
        "role": "",
        "telephone": "",
        "auth": 2,
        "enabled": false
      },
      {
        "delFlag": false,
        "createTime": "2019-12-18 17:45:29",
        "lastModifyTime": "2019-12-18 17:45:29",
        "createUID": null,
        "lastModifyUID": null,
        "createName": null,
        "id": 6,
        "userName": "test005",
        "password": "$2a$10$d/HV8OdsabqJipW6t5fc3e/zMRL0wAePKy/aUGNyer/ZLPK2g4BOq",
        "fullName": "马七",
        "department": "",
        "role": "",
        "telephone": "",
        "auth": 2,
        "enabled": true
      },
      {
        "delFlag": false,
        "createTime": "2019-12-18 17:46:01",
        "lastModifyTime": "2019-12-18 17:46:02",
        "createUID": null,
        "lastModifyUID": null,
        "createName": null,
        "id": 7,
        "userName": "test008",
        "password": "$2a$10$AwHIPrtLXIhJeTLZC4yU0OvDdavAfeaHHtx3S1cBYe8DvxSukyTDq",
        "fullName": "闫八",
        "department": "",
        "role": "",
        "telephone": "",
        "auth": 2,
        "enabled": true
      },
      {
        "delFlag": false,
        "createTime": "2019-12-18 17:46:41",
        "lastModifyTime": "2019-12-19 09:41:16",
        "createUID": null,
        "lastModifyUID": null,
        "createName": null,
        "id": 8,
        "userName": "test006",
        "password": "$2a$10$caxbev5OMMhdRBhgEg3WeO9qsB9XdwkqxsDh3aRtGCfmP10xp966C",
        "fullName": "十九",
        "department": "",
        "role": "",
        "telephone": "",
        "auth": 2,
        "enabled": true
      },
      {
        "delFlag": false,
        "createTime": "2019-12-18 17:47:08",
        "lastModifyTime": "2019-12-18 17:47:09",
        "createUID": null,
        "lastModifyUID": null,
        "createName": null,
        "id": 9,
        "userName": "test009",
        "password": "$2a$10$UAHbN5Y3Ja1He2KpcP18WuuZEPINIgmYK5k2RygxVvdfDysUMKQ3K",
        "fullName": "刘二十",
        "department": "",
        "role": "",
        "telephone": "",
        "auth": 2,
        "enabled": true
      },
      {
        "delFlag": false,
        "createTime": "2019-12-18 17:48:33",
        "lastModifyTime": "2019-12-18 17:48:33",
        "createUID": null,
        "lastModifyUID": null,
        "createName": null,
        "id": 12,
        "userName": "test0012",
        "password": "$2a$10$fOedTqcOK/3udYSoIN4WBeHenJ9apBVcyqyKhtDywwphrvpfDSfX.",
        "fullName": "周三",
        "department": "",
        "role": "",
        "telephone": "",
        "auth": 2,
        "enabled": true
      }
    ],
    "pageable": {
      "sort": {
        "sorted": true,
        "unsorted": false,
        "empty": false
      },
      "offset": 0,
      "pageSize": 10,
      "pageNumber": 0,
      "paged": true,
      "unpaged": false
    },
    "totalPages": 2,
    "totalElements": 18,
    "last": false,
    "number": 0,
    "size": 10,
    "numberOfElements": 10,
    "sort": {
      "sorted": true,
      "unsorted": false,
      "empty": false
    },
    "first": true,
    "empty": false
  },
  "o": null
}