{
  "statusCode" : 200,
  "message" : "查询成功",
  "data" : {
    "content" : [ {
      "delFlag" : false,
      "createTime" : "2019-12-16 16:00:16",
      "lastModifyTime" : "2019-12-16 16:00:16",
      "createUID" : null,
      "lastModifyUID" : null,
      "createName" : null,
      "id" : "402881126f0db860016f0db8dbbb0000",
      "tableName" : "ARMY_XLLSJLB16084",
      "tableComments" : "训练落实记录表",
      "typeValue" : "business_train",
      "tableDesc" : "训练科目完成后的数据记录",
      "enabled" : true,
      "business" : null
    }, {
      "delFlag" : false,
      "createTime" : "2019-12-16 17:04:48",
      "lastModifyTime" : "2019-12-18 14:33:04",
      "createUID" : null,
      "lastModifyUID" : null,
      "createName" : null,
      "id" : "402881126f0df3c5016f0df3ef020000",
      "tableName" : "ARMY_XLXHSJJLB47818",
      "tableComments" : "训练消耗数据记录表",
      "typeValue" : "business_train",
      "tableDesc" : "记录每次训练物资、时间等消耗",
      "enabled" : true,
      "business" : "train_consume"
    }, {
      "delFlag" : false,
      "createTime" : "2019-12-19 14:04:06",
      "lastModifyTime" : "2019-12-19 14:04:06",
      "createUID" : null,
      "lastModifyUID" : null,
      "createName" : null,
      "id" : "402881e26f17a27b016f17c500660000",
      "tableName" : "ARMY_BDXXJLB44237",
      "tableComments" : "部队信息记录表",
      "typeValue" : "business_baseinfo",
      "tableDesc" : "部队信息数据记录",
      "enabled" : true,
      "business" : "baseinfo_troopsinfo"
    }, {
      "delFlag" : false,
      "createTime" : "2019-12-19 14:54:16",
      "lastModifyTime" : "2019-12-19 14:54:16",
      "createUID" : null,
      "lastModifyUID" : null,
      "createName" : null,
      "id" : "402881126f1cec67016f1cef81eb0000",
      "tableName" : "ARMY_CSCJB16021",
      "tableComments" : "测试创建表",
      "typeValue" : "",
      "tableDesc" : "测试用删除",
      "enabled" : true,
      "business" : null
    }, {
      "delFlag" : false,
      "createTime" : "2019-12-19 15:53:46",
      "lastModifyTime" : "2019-12-19 15:53:46",
      "createUID" : null,
      "lastModifyUID" : null,
      "createName" : null,
      "id" : "402881126f1d241a016f1d25fa6b0000",
      "tableName" : "ARMY_CSCJB45755",
      "tableComments" : "测试创建表",
      "typeValue" : "",
      "tableDesc" : "测后删",
      "enabled" : true,
      "business" : null
    }, {
      "delFlag" : false,
      "createTime" : "2019-12-20 10:20:54",
      "lastModifyTime" : "2019-12-20 10:20:54",
      "createUID" : null,
      "lastModifyUID" : null,
      "createName" : null,
      "id" : "402881126f1db294016f2102c6a00000",
      "tableName" : "ARMY_NLFXSJJLB47659",
      "tableComments" : "能力分析数据记录表",
      "typeValue" : "business_capability",
      "tableDesc" : "记录所有能力的总值",
      "enabled" : true,
      "business" : "capability_data"
    }, {
      "delFlag" : false,
      "createTime" : "2019-12-20 12:00:54",
      "lastModifyTime" : "2019-12-20 12:00:54",
      "createUID" : null,
      "lastModifyUID" : null,
      "createName" : null,
      "id" : "402881e26f214353016f214f49880000",
      "tableName" : "ARMY_RYXXJLB21868",
      "tableComments" : "人员信息记录表",
      "typeValue" : "business_baseinfo",
      "tableDesc" : "人员信息数据记录",
      "enabled" : true,
      "business" : "baseinfo_personnelinfo"
    }, {
      "delFlag" : false,
      "createTime" : "2019-12-20 14:09:18",
      "lastModifyTime" : "2019-12-20 14:14:39",
      "createUID" : null,
      "lastModifyUID" : null,
      "createName" : null,
      "id" : "ff8080816f21ddd1016f21ecb2ab0000",
      "tableName" : "ARMY_WZZB17974",
      "tableComments" : "物资战备",
      "typeValue" : "business_readiness",
      "tableDesc" : "战备状态-弹药物资",
      "enabled" : true,
      "business" : "material_status"
    }, {
      "delFlag" : false,
      "createTime" : "2019-12-20 15:32:43",
      "lastModifyTime" : "2019-12-20 15:33:26",
      "createUID" : null,
      "lastModifyUID" : null,
      "createName" : null,
      "id" : "ff8080816f2227f3016f223911fb0000",
      "tableName" : "ARMY_RYZT43086",
      "tableComments" : "人员状态",
      "typeValue" : "people_status",
      "tableDesc" : "人员状态",
      "enabled" : true,
      "business" : "people_status"
    }, {
      "delFlag" : false,
      "createTime" : "2019-12-20 15:34:20",
      "lastModifyTime" : "2019-12-20 15:34:59",
      "createUID" : null,
      "lastModifyUID" : null,
      "createName" : null,
      "id" : "ff8080816f2227f3016f223a8aeb0002",
      "tableName" : "ARMY_SBZT19626",
      "tableComments" : "设备状态",
      "typeValue" : "equipment_status",
      "tableDesc" : "设备状态",
      "enabled" : true,
      "business" : "equipment_status"
    } ],
    "pageable" : {
      "sort" : {
        "sorted" : true,
        "unsorted" : false,
        "empty" : false
      },
      "offset" : 0,
      "pageSize" : 10,
      "pageNumber" : 0,
      "paged" : true,
      "unpaged" : false
    },
    "totalPages" : 2,
    "totalElements" : 11,
    "last" : false,
    "number" : 0,
    "size" : 10,
    "numberOfElements" : 10,
    "sort" : {
      "sorted" : true,
      "unsorted" : false,
      "empty" : false
    },
    "first" : true,
    "empty" : false
  },
  "o" : null
}
